12 Bootstrap and Bagging – Time Series Analysis
…
12.1.1 데이터 불러오기

pacman::p_load("forecast",
               "dplyr",
               "ggplot2",
               "doParallel", "parallel")           # For 병렬 처리

registerDoParallel(cores=detectCores())            # 사용할 Core 개수 지정     

Amtrak.data <- read.csv(".../Amtrak.csv")          # 데이터 불러오기

Amtrak.data %>%
  as_tibble

# A tibble: 159 × 2
   Month      Ridership
   <chr>          <dbl>
 1 01/01/1991     1709.
 2 01/02/1991     1621.
 3 01/03/1991     1973.
 4 01/04/1991     1812.
 5 01/05/1991     1975.
 6 01/06/1991     1862.
 7 01/07/1991     1940.
 8 01/08/1991     2013.
 9 01/09/1991     1596.
10 01/10/1991     1725.
# ℹ 149 more rows
…
# Partition for Target
train.ts <- window(ridership.ts, 
                   start = c(1991, 1),            # 분할하고자 하는 시계열의 시작 연도 / c(1991, 1) : 1991년 1월
                   end = c(2001, 3))              # 분할하고자 하는 시계열의 마지막 연도 / c(2001, 3) : 2001년 3월

test.ts <- window(ridership.ts,
                   start = c(2001, 4))            # 분할하고자 하는 시계열의 시작 연도 / c(2001, 4) : 2001년 4월

nTrain   <- length(train.ts)                      # Training Dataset의 데이터 포인트 개수
nTest   <- length(test.ts)                        # Test Dataset의 데이터 포인트 개수

train.ts %>%
  as_tibble

# A tibble: 123 × 1
       x
   <dbl>
 1 1709.
 2 1621.
 3 1973.
 4 1812.
 5 1975.
 6 1862.
 7 1940.
 8 2013.
 9 1596.
10 1725.
# ℹ 113 more rows

test.ts %>%
  as_tibble

# A tibble: 36 × 1
       x
   <dbl>
 1 2024.
 2 2047.
 3 2073.
 4 2127.
 5 2203.
 6 1708.
 7 1951.
 8 1974.
 9 1985.
10 1760.
# ℹ 26 more rows
…
# 95% Predictive Interval
boot.pred <- t(baggedfc$forecasts_boot)                       # 특정 시점에서 각 붓스트랩 시계열의 예측값
PI.pred   <- apply(boot.pred, 2, function(x) { quantile(x, probs = c(0.025, 0.975) ) })

Result! 95% 예측 구간은 붓스트랩 시계열에 대한 예측값들의 분위수를 계산하여 얻을 수 있다.

# Results for 95% Predictive Interval 
data.frame("PI.lower" = PI.pred[1,], "PI.upper" = PI.pred[2,], 
           "length of PI" = PI.pred[2,]-PI.pred[1,]) %>%
  as_tibble()

# A tibble: 36 × 3
   PI.lower PI.upper length.of.PI
      <dbl>    <dbl>        <dbl>
 1    1946.    2096.         150.
 2    1974.    2123.         148.
 3    1943.    2079.         136.
 4    2052.    2180.         128.
 5    2106.    2224.         118.
 6    1788.    1892.         104.
 7    1905.    2016.         111.
 8    1884.    2003.         119.
 9    1915.    2052.         138.
10    1695.    1817.         122.
# ℹ 26 more rows
…
# Plot with Predictive Interval
## 1. Original Prediction Result
Original <- data.frame("Date" = as.numeric(time(test.ts)),                    # Date
                       "Y" = c(test.ts),                                      # Test Dataset
                       "Pred" = c(etsfc$mean),                                # Prediction Result
                       "PI.lower" = c(etsfc$lower[,2]),                       # Lower of Predictive Interval
                       "PI.upper" = c(etsfc$upper[,2]),                       # Upper of Predictive Interval
                       "Type" = "Original"
                       )

Original %>%
  as_tibble

# A tibble: 36 × 6
    Date     Y  Pred PI.lower PI.upper Type    
   <dbl> <dbl> <dbl>    <dbl>    <dbl> <chr>   
 1 2001. 2024. 2003.    1869.    2138. Original
 2 2001. 2047. 2019.    1864.    2174. Original
 3 2001. 2073. 1981.    1811.    2151. Original
 4 2002. 2127. 2093.    1902.    2284. Original
 5 2002. 2203. 2143.    1935.    2352. Original
 6 2002. 1708. 1822.    1612.    2032. Original
 7 2002. 1951. 1943.    1718.    2169. Original
 8 2002. 1974. 1932.    1696.    2169. Original
 9 2002. 1985. 1970.    1722.    2219. Original
10 2002  1760. 1732.    1481.    1984. Original
# ℹ 26 more rows

## 2. Bagging Prediction Result
Bagging <- data.frame("Date" = as.numeric(time(test.ts)),                     # Date
                      "Y" = c(test.ts),                                       # Test Dataset
                      "Pred" = c(baggedfc$mean),                              # Prediction Result
                      "PI.lower" = PI.pred[1,],                               # Lower of Predictive Interval
                      "PI.upper" = PI.pred[2,],                               # Upper of Predictive Interval
                      "Type" = "Bagging" 
)

Bagging %>%
  as_tibble

# A tibble: 36 × 6
    Date     Y  Pred PI.lower PI.upper Type   
   <dbl> <dbl> <dbl>    <dbl>    <dbl> <chr>  
 1 2001. 2024. 2001.    1946.    2096. Bagging
 2 2001. 2047. 2029.    1974.    2123. Bagging
 3 2001. 2073. 1985.    1943.    2079. Bagging
 4 2002. 2127. 2093.    2052.    2180. Bagging
 5 2002. 2203. 2145.    2106.    2224. Bagging
 6 2002. 1708. 1821.    1788.    1892. Bagging
 7 2002. 1951. 1954.    1905.    2016. Bagging
 8 2002. 1974. 1930.    1884.    2003. Bagging
 9 2002. 1985. 1974.    1915.    2052. Bagging
10 2002  1760. 1740.    1695.    1817. Bagging
# ℹ 26 more rows

## 3. Combine
df <- rbind(Original, Bagging)

df %>%
  as_tibble

# A tibble: 72 × 6
    Date     Y  Pred PI.lower PI.upper Type    
   <dbl> <dbl> <dbl>    <dbl>    <dbl> <chr>   
 1 2001. 2024. 2003.    1869.    2138. Original
 2 2001. 2047. 2019.    1864.    2174. Original
 3 2001. 2073. 1981.    1811.    2151. Original
 4 2002. 2127. 2093.    1902.    2284. Original
 5 2002. 2203. 2143.    1935.    2352. Original
 6 2002. 1708. 1822.    1612.    2032. Original
 7 2002. 1951. 1943.    1718.    2169. Original
 8 2002. 1974. 1932.    1696.    2169. Original
 9 2002. 1985. 1970.    1722.    2219. Original
10 2002  1760. 1732.    1481.    1984. Original
# ℹ 62 more rows
…
# 95% Predictive Interval
boot.pred <- t(baggedfc$forecasts_boot)                       # 특정 시점에서 각 붓스트랩 시계열의 예측값
PI.pred   <- apply(boot.pred, 2, function(x) { quantile(x, probs = c(0.025, 0.975) ) })

Result! 95% 예측 구간은 붓스트랩 시계열에 대한 예측값들의 분위수를 계산하여 얻을 수 있다.

# Results for 95% Predictive Interval 
data.frame("PI.lower" = PI.pred[1,], "PI.upper" = PI.pred[2,], 
           "length of PI" = PI.pred[2,]-PI.pred[1,]) %>%
  as_tibble()

# A tibble: 36 × 3
   PI.lower PI.upper length.of.PI
      <dbl>    <dbl>        <dbl>
 1    1949.    2099.        150. 
 2    1994.    2129.        135. 
 3    1969.    2090.        121. 
 4    2076.    2189.        113. 
 5    2134.    2239.        106. 
 6    1788.    1923.        135. 
 7    1947.    2036.         88.6
 8    1931.    2026.         95.2
 9    1973.    2085.        113. 
10    1732.    1852.        120. 
# ℹ 26 more rows
…
# Plot with Predictive Interval
## 1. Original Prediction Result
Original <- data.frame("Date" = as.numeric(time(test.ts)),                    # Date
                       "Y" = c(test.ts),                                      # Test Dataset
                       "Pred" = c(arimafc$mean),                              # Prediction Result
                       "PI.lower" = c(arimafc$lower[,2]),                     # Lower of Predictive Interval
                       "PI.upper" = c(arimafc$upper[,2]),                     # Upper of Predictive Interval
                       "Type" = "Original"
)

Original %>%
  as_tibble

# A tibble: 36 × 6
    Date     Y  Pred PI.lower PI.upper Type    
   <dbl> <dbl> <dbl>    <dbl>    <dbl> <chr>   
 1 2001. 2024. 2020.    1895.    2144. Original
 2 2001. 2047. 2047.    1904.    2191. Original
 3 2001. 2073. 2042.    1888.    2196. Original
 4 2002. 2127. 2139.    1977.    2300. Original
 5 2002. 2203. 2168.    2000.    2337. Original
 6 2002. 1708. 1858.    1683.    2033. Original
 7 2002. 1951. 2005.    1823.    2186. Original
 8 2002. 1974. 2007.    1820.    2195. Original
 9 2002. 1985. 2034.    1841.    2227. Original
10 2002  1760. 1758.    1559.    1957. Original
# ℹ 26 more rows

## 2. Bagging Prediction Result
Bagging <- data.frame("Date" = as.numeric(time(test.ts)),                     # Date
                      "Y" = c(test.ts),                                       # Test Dataset
                      "Pred" = c(baggedfc$mean),                              # Prediction Result
                      "PI.lower" = PI.pred[1,],                               # Lower of Predictive Interval
                      "PI.upper" = PI.pred[2,],                               # Upper of Predictive Interval
                      "Type" = "Bagging" 
)

Bagging %>%
  as_tibble

# A tibble: 36 × 6
    Date     Y  Pred PI.lower PI.upper Type   
   <dbl> <dbl> <dbl>    <dbl>    <dbl> <chr>  
 1 2001. 2024. 2011.    1949.    2099. Bagging
 2 2001. 2047. 2047.    1994.    2129. Bagging
 3 2001. 2073. 2012.    1969.    2090. Bagging
 4 2002. 2127. 2129.    2076.    2189. Bagging
 5 2002. 2203. 2173.    2134.    2239. Bagging
 6 2002. 1708. 1854.    1788.    1923. Bagging
 7 2002. 1951. 1988.    1947.    2036. Bagging
 8 2002. 1974. 1970.    1931.    2026. Bagging
 9 2002. 1985. 2017.    1973.    2085. Bagging
10 2002  1760. 1779.    1732.    1852. Bagging
# ℹ 26 more rows

## 3. Combine
df <- rbind(Original, Bagging)

df %>%
  as_tibble

# A tibble: 72 × 6
    Date     Y  Pred PI.lower PI.upper Type    
   <dbl> <dbl> <dbl>    <dbl>    <dbl> <chr>   
 1 2001. 2024. 2020.    1895.    2144. Original
 2 2001. 2047. 2047.    1904.    2191. Original
 3 2001. 2073. 2042.    1888.    2196. Original
 4 2002. 2127. 2139.    1977.    2300. Original
 5 2002. 2203. 2168.    2000.    2337. Original
 6 2002. 1708. 1858.    1683.    2033. Original
 7 2002. 1951. 2005.    1823.    2186. Original
 8 2002. 1974. 2007.    1820.    2195. Original
 9 2002. 1985. 2034.    1841.    2227. Original
10 2002  1760. 1758.    1559.    1957. Original
# ℹ 62 more rows
…
