10 Dynamic Linear Model and Bayesian Structural Time Series – Time Series Analysis
…
예제 데이터로 사용하는 "Amtrak.csv"은 1991년 1월부터 2004년 3월까지 미국 철도 회사인 암트랙에서 제공한 월간 승객 수(단위 : 1,000명)가 기록되어져 있다.

10.1.1 데이터 불러오기

pacman::p_load("dlm", "bsts",
               "forecast",
               "dplyr")

Amtrak.data <- read.csv(".../Amtrak.csv")          # 데이터 불러오기

Amtrak.data %>%
  as_tibble

# A tibble: 159 × 2
   Month      Ridership
   <chr>          <dbl>
 1 01/01/1991     1709.
 2 01/02/1991     1621.
 3 01/03/1991     1973.
 4 01/04/1991     1812.
 5 01/05/1991     1975.
 6 01/06/1991     1862.
 7 01/07/1991     1940.
 8 01/08/1991     2013.
 9 01/09/1991     1596.
10 01/10/1991     1725.
# ℹ 149 more rows

10.1.2 데이터 전처리

# 1. Create Predictor Variable
ridership.df <- Amtrak.data %>%
  dplyr::mutate(Lag1 = dplyr::lag(Ridership, 
                                  n = 1)) %>%      # 바로 이전 과거에 관측된 값을 예측 변수로 생성
  na.omit()                                        # 결측치 NA가 포함된 행 제거 -> 첫 번째 시계열은 과거 관측값이 없기 때문에 변수 Lag1에 NA 생성 
  
ridership.df %>%
    as_tibble

# A tibble: 158 × 3
   Month      Ridership  Lag1
   <chr>          <dbl> <dbl>
 1 01/02/1991     1621. 1709.
 2 01/03/1991     1973. 1621.
 3 01/04/1991     1812. 1973.
 4 01/05/1991     1975. 1812.
 5 01/06/1991     1862. 1975.
 6 01/07/1991     1940. 1862.
 7 01/08/1991     2013. 1940.
 8 01/09/1991     1596. 2013.
 9 01/10/1991     1725. 1596.
10 01/11/1991     1676. 1725.
# ℹ 148 more rows
…
test.ts <- window(ridership.ts,
                   start = c(2001, 4))            # 분할하고자 하는 시계열의 시작 연도 / c(2001, 4) : 2001년 4월

nTrain   <- length(train.ts)                      # Training Dataset의 데이터 포인트 개수

nTest   <- length(test.ts)                        # Test Dataset의 데이터 포인트 개수

train.ts %>%
  as_tibble

# A tibble: 122 × 1
       x
   <dbl>
 1 1621.
 2 1973.
 3 1812.
 4 1975.
 5 1862.
 6 1940.
 7 2013.
 8 1596.
 9 1725.
10 1676.
# ℹ 112 more rows

test.ts %>%
  as_tibble

# A tibble: 36 × 1
       x
   <dbl>
 1 2024.
 2 2047.
 3 2073.
 4 2127.
 5 2203.
 6 1708.
 7 1951.
 8 1974.
 9 1985.
10 1760.
# ℹ 26 more rows
…
# 2. 모형 훈련
## 2-1. Create Data Frame with Time Series and Predictor Variable 
Train.Data <- data.frame("y"= train.ts, 
                         "Lag" = ridership.df$Lag1[1:nTrain])    # In 1-2

Train.Data %>%
  as_tibble

# A tibble: 122 × 2
       y   Lag
   <dbl> <dbl>
 1 1621. 1709.
 2 1973. 1621.
 3 1812. 1973.
 4 1975. 1812.
 5 1862. 1975.
 6 1940. 1862.
 7 2013. 1940.
 8 1596. 2013.
 9 1725. 1596.
10 1676. 1725.
# ℹ 112 more rows
…
