8 Dynamic Harmonic Regression – Time Series Analysis
…
8.1 Amtrak

예제 데이터로 사용하는 "Amtrak.csv"은 1991년 1월부터 2004년 3월까지 미국 철도 회사인 암트랙에서 제공한 월간 승객 수(단위 : 1,000명)가 기록되어져 있다.

8.1.1 데이터 불러오기

pacman::p_load("forecast",
               "dplyr")

Amtrak.data <- read.csv(".../Amtrak.csv")          # 데이터 불러오기

Amtrak.data %>%
  as_tibble

# A tibble: 159 × 2
   Month      Ridership
   <chr>          <dbl>
 1 01/01/1991     1709.
 2 01/02/1991     1621.
 3 01/03/1991     1973.
 4 01/04/1991     1812.
 5 01/05/1991     1975.
 6 01/06/1991     1862.
 7 01/07/1991     1940.
 8 01/08/1991     2013.
 9 01/09/1991     1596.
10 01/10/1991     1725.
# ℹ 149 more rows

8.1.2 데이터 전처리

# 1. Create Predictor Variable
ridership.df <- Amtrak.data %>%
  dplyr::mutate(Lag1 = dplyr::lag(Ridership, 
                                  n = 1)) %>%      # 바로 이전 과거에 관측된 값을 예측 변수로 생성
  na.omit()                                        # 결측치 NA가 포함된 행 제거 -> 첫 번째 시계열은 과거 관측값이 없기 때문에 변수 Lag1에 NA 생성 
  
ridership.df %>%
    as_tibble

# A tibble: 158 × 3
   Month      Ridership  Lag1
   <chr>          <dbl> <dbl>
 1 01/02/1991     1621. 1709.
 2 01/03/1991     1973. 1621.
 3 01/04/1991     1812. 1973.
 4 01/05/1991     1975. 1812.
 5 01/06/1991     1862. 1975.
 6 01/07/1991     1940. 1862.
 7 01/08/1991     2013. 1940.
 8 01/09/1991     1596. 2013.
 9 01/10/1991     1725. 1596.
10 01/11/1991     1676. 1725.
# ℹ 148 more rows
…
test.ts <- window(ridership.ts,
                   start = c(2001, 4))            # 분할하고자 하는 시계열의 시작 연도 / c(2001, 4) : 2001년 4월

nTrain   <- length(train.ts)                      # Training Dataset의 데이터 포인트 개수

nTest   <- length(test.ts)                        # Test Dataset의 데이터 포인트 개수

train.ts %>%
  as_tibble

# A tibble: 122 × 1
       x
   <dbl>
 1 1621.
 2 1973.
 3 1812.
 4 1975.
 5 1862.
 6 1940.
 7 2013.
 8 1596.
 9 1725.
10 1676.
# ℹ 112 more rows

test.ts %>%
  as_tibble

# A tibble: 36 × 1
       x
   <dbl>
 1 2024.
 2 2047.
 3 2073.
 4 2127.
 5 2203.
 6 1708.
 7 1951.
 8 1974.
 9 1985.
10 1760.
# ℹ 26 more rows
…
data:  Residuals from Regression with ARIMA(0,1,1)(0,1,1)[12] errors
Q* = 13.323, df = 22, p-value = 0.9237

Model df: 2.   Total lags used: 24

# Test Dataset에 대한 예측 수행
pred.regres <- forecast(regres,                                            
                        h = nTest,                                          # Test Dataset의 데이터 포인트 개수만큼 예측값 계산 
                        xreg = ridership.df$Lag1[-(1:nTrain)])              # Test Dataset의 예측 변수

pred.regres %>%
  as_tibble

# A tibble: 36 × 5
   `Point Forecast` `Lo 80` `Hi 80` `Lo 95` `Hi 95`
              <dbl>   <dbl>   <dbl>   <dbl>   <dbl>
 1            2019.   1937.   2100.   1894.   2143.
 2            2048.   1964.   2132.   1920.   2177.
 3            2040.   1953.   2126.   1908.   2172.
 4            2148.   2059.   2237.   2012.   2284.
 5            2164.   2073.   2256.   2025.   2304.
 6            1868.   1775.   1961.   1725.   2011.
 7            1955.   1859.   2050.   1809.   2101.
 8            1988.   1890.   2086.   1839.   2138.
 9            2021.   1922.   2121.   1869.   2174.
10            1742.   1640.   1844.   1586.   1898.
# ℹ 26 more rows
…
data:  Residuals from Regression with ARIMA(1,1,5) errors
Q* = 184.85, df = 18, p-value < 2.2e-16

Model df: 6.   Total lags used: 24

# Test Dataset에 대한 예측 수행
pred.DHR <- forecast(DHR.fit,                                            
                     h = nTest,                                            # Test Dataset의 데이터 포인트 개수만큼 예측값 계산 
                     xreg = cbind(Lag1 = ridership.df$Lag1[-(1:nTrain)],   # Test Dataset의 예측 변수
                                  fourier(train.ts, K = 2, h = nTest))) 

pred.DHR %>%
  as_tibble

# A tibble: 36 × 5
   `Point Forecast` `Lo 80` `Hi 80` `Lo 95` `Hi 95`
              <dbl>   <dbl>   <dbl>   <dbl>   <dbl>
 1            2081.   1942.   2220.   1869.   2293.
 2            2160.   1983.   2337.   1889.   2431.
 3            2067.   1886.   2248.   1791.   2343.
 4            2067.   1885.   2249.   1789.   2345.
 5            2024.   1842.   2206.   1745.   2303.
 6            1929.   1732.   2125.   1628.   2230.
 7            2132.   1929.   2334.   1821.   2442.
 8            1969.   1757.   2180.   1645.   2292.
 9            1877.   1658.   2095.   1542.   2211.
10            1787.   1561.   2013.   1442.   2133.
# ℹ 26 more rows
…
