16 Deep Learning – Time Series Analysis
…
registerDoParallel(cores=detectCores())

tensorflow::as_tensor(1)                                                 # systemMemory and maxCacheSize

tf.Tensor(1.0, shape=(), dtype=float64)

# Loading as Tibble Type
Amtrak.data <- readr::read_csv(".../Amtrak.csv")                 

Amtrak.data %>%
  as_tibble

# A tibble: 159 × 2
   Month      Ridership
   <chr>          <dbl>
 1 01/01/1991     1709.
 2 01/02/1991     1621.
 3 01/03/1991     1973.
 4 01/04/1991     1812.
 5 01/05/1991     1975.
 6 01/06/1991     1862.
 7 01/07/1991     1940.
 8 01/08/1991     2013.
 9 01/09/1991     1596.
10 01/10/1991     1725.
# ℹ 149 more rows

코드 설명 함수 readr::read_csv()는 CSV 파일을 tibble 형태로 읽어온다. 이는 데이터 가독성과 처리 속도를 높이며, Package "tidyverse"와의 호환성을 향상시킨다.

16.2 Feature Extraction

# 1. Generate New Variables
Amtrak.data <- Amtrak.data %>%
  mutate(Date.Time = as.Date(Month, format = "%d/%m/%Y"),       # 날짜를 나타내는 변수 
         Month = factor(lubridate::month(Date.Time)))           # 월(Month)을 나타내는 변수

Amtrak.data

# A tibble: 159 × 3
   Month Ridership Date.Time 
   <fct>     <dbl> <date>    
 1 1         1709. 1991-01-01
 2 2         1621. 1991-02-01
 3 3         1973. 1991-03-01
 4 4         1812. 1991-04-01
 5 5         1975. 1991-05-01
 6 6         1862. 1991-06-01
 7 7         1940. 1991-07-01
 8 8         2013. 1991-08-01
 9 9         1596. 1991-09-01
10 10        1725. 1991-10-01
# ℹ 149 more rows

# 2. Convert Factor to One-hot Encoding
data_recipe  <- recipe(Ridership ~ ., data = Amtrak.data) %>%   # Define Formula / Ridership: Target
  step_dummy(Month, one_hot = TRUE) %>%                         # One-hot Encoding
  prep(training = Amtrak.data, retain = TRUE)                  

Amtrak.data1 <- juice(data_recipe)                               

Amtrak.data1

# A tibble: 159 × 14
   Date.Time  Ridership Month_X1 Month_X2 Month_X3 Month_X4 Month_X5 Month_X6 Month_X7 Month_X8 Month_X9 Month_X10 Month_X11 Month_X12
   <date>         <dbl>    <dbl>    <dbl>    <dbl>    <dbl>    <dbl>    <dbl>    <dbl>    <dbl>    <dbl>     <dbl>     <dbl>     <dbl>
 1 1991-01-01     1709.        1        0        0        0        0        0        0        0        0         0         0         0
 2 1991-02-01     1621.        0        1        0        0        0        0        0        0        0         0         0         0
 3 1991-03-01     1973.        0        0        1        0        0        0        0        0        0         0         0         0
 4 1991-04-01     1812.        0        0        0        1        0        0        0        0        0         0         0         0
 5 1991-05-01     1975.        0        0        0        0        1        0        0        0        0         0         0         0
 6 1991-06-01     1862.        0        0        0        0        0        1        0        0        0         0         0         0
 7 1991-07-01     1940.        0        0        0        0        0        0        1        0        0         0         0         0
 8 1991-08-01     2013.        0        0        0        0        0        0        0        1        0         0         0         0
 9 1991-09-01     1596.        0        0        0        0        0        0        0        0        1         0         0         0
10 1991-10-01     1725.        0        0        0        0        0        0        0        0        0         1         0         0
# ℹ 149 more rows
…
