13 Ensemble – Time Series Analysis
…
예제 데이터로 사용하는 "Amtrak.csv"은 1991년 1월부터 2004년 3월까지 미국 철도 회사인 암트랙에서 제공한 월간 승객 수(단위 : 1,000명)가 기록되어져 있다.

13.1.1 데이터 불러오기

pacman::p_load("forecast",
               "forecastHybrid",                   # For Ensemble 
               "dplyr")

Amtrak.data <- read.csv(".../Amtrak.csv")          # 데이터 불러오기

Amtrak.data %>%
  as_tibble

# A tibble: 159 × 2
   Month      Ridership
   <chr>          <dbl>
 1 01/01/1991     1709.
 2 01/02/1991     1621.
 3 01/03/1991     1973.
 4 01/04/1991     1812.
 5 01/05/1991     1975.
 6 01/06/1991     1862.
 7 01/07/1991     1940.
 8 01/08/1991     2013.
 9 01/09/1991     1596.
10 01/10/1991     1725.
# ℹ 149 more rows
…
test.ts <- window(ridership.ts,
                   start = c(2001, 4))            # 분할하고자 하는 시계열의 시작 연도 / c(2001, 4) : 2001년 4월

nTrain   <- length(train.ts)                      # Training Dataset의 데이터 포인트 개수

nTest   <- length(test.ts)                        # Test Dataset의 데이터 포인트 개수

train.ts %>%
  as_tibble

# A tibble: 122 × 1
       x
   <dbl>
 1 1709.
 2 1621.
 3 1973.
 4 1812.
 5 1975.
 6 1862.
 7 1940.
 8 2013.
 9 1596.
10 1725.
# ℹ 112 more rows

test.ts %>%
  as_tibble

# A tibble: 37 × 1
       x
   <dbl>
 1 2008.
 2 2024.
 3 2047.
 4 2073.
 5 2127.
 6 2203.
 7 1708.
 8 1951.
 9 1974.
10 1985.
# ℹ 27 more rows
…
