17 Imputation using Kalman Smoothing – Time Series Analysis
…
pacman::p_load("dplyr", 
               "xts", 
               "ggplot2", 
               "imputeTS")

# In Mac
# guess_encoding("Amtrak.csv")
# Amtrak.data <- read.csv("Amtrak.csv", fileEncoding="EUC-KR")

Amtrak.data  <- read.csv(".../Amtrak.csv")

Amtrak.data %>%
  as_tibble

# A tibble: 159 × 2
   Month      Ridership
   <chr>          <dbl>
 1 01/01/1991     1709.
 2 01/02/1991     1621.
 3 01/03/1991     1973.
 4 01/04/1991     1812.
 5 01/05/1991     1975.
 6 01/06/1991     1862.
 7 01/07/1991     1940.
 8 01/08/1991     2013.
 9 01/09/1991     1596.
10 01/10/1991     1725.
# ℹ 149 more rows
…
