14 Neural Network Model – Time Series Analysis
…
시계열의 시차값이 신경망의 입력값으로써 사용될 수 있으며 이것을 신경망 자기회귀 또는 NNAR 모형이라고 부른다.

14.3.1 데이터 불러오기

pacman::p_load("forecast",
               "ggplot2",
               "dplyr")

Amtrak.data <- read.csv(".../Amtrak.csv")          # 데이터 불러오기

Amtrak.data %>%
  as_tibble

# A tibble: 159 × 2
   Month      Ridership
   <chr>          <dbl>
 1 01/01/1991     1709.
 2 01/02/1991     1621.
 3 01/03/1991     1973.
 4 01/04/1991     1812.
 5 01/05/1991     1975.
 6 01/06/1991     1862.
 7 01/07/1991     1940.
 8 01/08/1991     2013.
 9 01/09/1991     1596.
10 01/10/1991     1725.
# ℹ 149 more rows
…
