9 STLM – Time Series Analysis
…
9.1 Amtrak

예제 데이터로 사용하는 "Amtrak.csv"은 1991년 1월부터 2004년 3월까지 미국 철도 회사인 암트랙에서 제공한 월간 승객 수(단위 : 1,000명)가 기록되어져 있다.

9.1.1 데이터 불러오기

pacman::p_load("forecast",
               "dplyr")

Amtrak.data <- read.csv(".../Amtrak.csv")          # 데이터 불러오기

Amtrak.data %>%
  as_tibble

# A tibble: 159 × 2
   Month      Ridership
   <chr>          <dbl>
 1 01/01/1991     1709.
 2 01/02/1991     1621.
 3 01/03/1991     1973.
 4 01/04/1991     1812.
 5 01/05/1991     1975.
 6 01/06/1991     1862.
 7 01/07/1991     1940.
 8 01/08/1991     2013.
 9 01/09/1991     1596.
10 01/10/1991     1725.
# ℹ 149 more rows

9.1.2 데이터 전처리

# 1. Create Predictor Variable
ridership.df <- Amtrak.data %>%
  dplyr::mutate(Lag1 = dplyr::lag(Ridership, 
                                  n = 1)) %>%      # 바로 이전 과거에 관측된 값을 예측 변수로 생성
  na.omit()                                        # 결측치 NA가 포함된 행 제거 -> 첫 번째 시계열은 과거 관측값이 없기 때문에 변수 Lag1에 NA 생성 
  
ridership.df %>%
    as_tibble

# A tibble: 158 × 3
   Month      Ridership  Lag1
   <chr>          <dbl> <dbl>
 1 01/02/1991     1621. 1709.
 2 01/03/1991     1973. 1621.
 3 01/04/1991     1812. 1973.
 4 01/05/1991     1975. 1812.
 5 01/06/1991     1862. 1975.
 6 01/07/1991     1940. 1862.
 7 01/08/1991     2013. 1940.
 8 01/09/1991     1596. 2013.
 9 01/10/1991     1725. 1596.
10 01/11/1991     1676. 1725.
# ℹ 148 more rows
…
test.ts <- window(ridership.ts,
                   start = c(2001, 4))            # 분할하고자 하는 시계열의 시작 연도 / c(2001, 4) : 2001년 4월

nTrain   <- length(train.ts)                      # Training Dataset의 데이터 포인트 개수

nTest   <- length(test.ts)                        # Test Dataset의 데이터 포인트 개수

train.ts %>%
  as_tibble

# A tibble: 122 × 1
       x
   <dbl>
 1 1621.
 2 1973.
 3 1812.
 4 1975.
 5 1862.
 6 1940.
 7 2013.
 8 1596.
 9 1725.
10 1676.
# ℹ 112 more rows

test.ts %>%
  as_tibble

# A tibble: 36 × 1
       x
   <dbl>
 1 2024.
 2 2047.
 3 2073.
 4 2127.
 5 2203.
 6 1708.
 7 1951.
 8 1974.
 9 1985.
10 1760.
# ℹ 26 more rows
…
Result! 함수 stlm()에 옵션 method = "arima"을 입력하면 함수 auto.arima()를 이용하여 자동적으로 최적의 ARIMA 모형을 선택한다. 예제 데이터 Amtrak의 \(A_{t}\)에는 다음과 같은 MA(1) 모형이 추정되었다.

\[
\begin{align*}
(1-B)A_t = \epsilon_t-0.4583\epsilon_{t-1}.
\end{align*}
\]

# 예측 
pred.STLM <- forecast(STLM.fit, h = nTest)        # MA(1) 모형을 이용하여 A_t를 예측 + Seasonal naive method에 의한 Seasonal 예측

pred.STLM %>%
  as_tibble

# A tibble: 36 × 5
   `Point Forecast` `Lo 80` `Hi 80` `Lo 95` `Hi 95`
              <dbl>   <dbl>   <dbl>   <dbl>   <dbl>
 1            1997.   1930.   2063.   1895.   2099.
 2            2033.   1957.   2108.   1917.   2148.
 3            2028.   1945.   2112.   1900.   2156.
 4            2130.   2039.   2221.   1991.   2269.
 5            2163.   2065.   2260.   2013.   2312.
 6            1842.   1738.   1946.   1682.   2001.
 7            1978.   1868.   2088.   1810.   2147.
 8            1968.   1853.   2084.   1791.   2146.
 9            1996.   1875.   2118.   1811.   2182.
10            1721.   1594.   1847.   1527.   1914.
# ℹ 26 more rows
…
\[
\begin{align*}
A_t &= -0.0044X_{\text{lag, t}} + \epsilon_t,\\
(1-B)\epsilon_t & = e_t -0.4546e_{t-1}.
\end{align*}
\]

# 예측 
pred.STLM2 <- forecast(STLM.fit2,                                # 회귀모형을 이용하여 A_t를 예측 + Seasonal naive method에 의한 Seasonal 예측
                       h = nTest,                                # Test Dataset의 데이터 포인트 개수만큼 예측값 계산 
                       newxreg = ridership.df$Lag1[-(1:nTrain)]) # Test Dataset에 대한 예측 변수
pred.STLM2 %>%
  as_tibble

# A tibble: 36 × 5
   `Point Forecast` `Lo 80` `Hi 80` `Lo 95` `Hi 95`
              <dbl>   <dbl>   <dbl>   <dbl>   <dbl>
 1            1995.   1928.   2062.   1893.   2097.
 2            2031.   1955.   2107.   1915.   2147.
 3            2026.   1942.   2111.   1897.   2155.
 4            2128.   2036.   2220.   1987.   2268.
 5            2160.   2061.   2259.   2009.   2311.
 6            1839.   1734.   1944.   1678.   2000.
 7            1979.   1867.   2090.   1808.   2149.
 8            1967.   1850.   2084.   1788.   2146.
 9            1995.   1872.   2118.   1807.   2182.
10            1719.   1591.   1847.   1524.   1915.
# ℹ 26 more rows
…
